<svg width="4" height="4" viewBox="0 0 4 4" fill="none" xmlns="http://www.w3.org/2000/svg">
<path id="Vector" d="M0 3.15459V3.99903H0.844444L3.28889 1.53237L2.44444 0.687921L0 3.15459ZM3.93333 0.887921C4.02222 0.799032 4.02222 0.665699 3.93333 0.57681L3.42222 0.0656901C3.33333 -0.0231988 3.2 -0.0231988 3.11111 0.0656901L2.71111 0.46569L3.55556 1.31013L3.93333 0.887921Z" fill="#898AC2"/>
</svg>
