<svg width="28" height="29" viewBox="0 0 28 29" fill="none" xmlns="http://www.w3.org/2000/svg">
<path d="M10.8359 27V28H11.8359V27H10.8359ZM7.56641 27H6.56641V28H7.56641V27ZM7.56641 5.32617H8.56641V3.89356L7.22163 4.38749L7.56641 5.32617ZM1.00977 7.73438H0.00976562V9.16699L1.35454 8.67306L1.00977 7.73438ZM1.00977 4.78125L0.658255 3.84507L0.00976562 4.08856V4.78125H1.00977ZM10.3262 1.2832V0.283203H10.1446L9.97466 0.347019L10.3262 1.2832ZM10.8359 1.2832H11.8359V0.283203H10.8359V1.2832ZM10.8359 26H7.56641V28H10.8359V26ZM8.56641 27V5.32617H6.56641V27H8.56641ZM7.22163 4.38749L0.664994 6.79569L1.35454 8.67306L7.91118 6.26486L7.22163 4.38749ZM2.00977 7.73438V4.78125H0.00976562V7.73438H2.00977ZM1.36128 5.71743L10.6777 2.21939L9.97466 0.347019L0.658255 3.84507L1.36128 5.71743ZM10.3262 2.2832H10.8359V0.283203H10.3262V2.2832ZM9.83594 1.2832V27H11.8359V1.2832H9.83594ZM22.5098 23.8887L21.7688 23.2172L21.7629 23.2236L21.7572 23.2302L22.5098 23.8887ZM25.5332 23.8887L24.7922 24.5602L24.7979 24.5665L24.8037 24.5726L25.5332 23.8887ZM25.5332 26.6484L24.8146 25.953L24.8087 25.9591L24.8029 25.9653L25.5332 26.6484ZM22.5098 26.6484L21.7677 27.3187L21.7735 27.3252L21.7795 27.3316L22.5098 26.6484ZM23.0176 25.2949C23.0176 24.9413 23.1144 24.7162 23.2623 24.5472L21.7572 23.2302C21.2489 23.8111 21.0176 24.5236 21.0176 25.2949H23.0176ZM23.2508 24.5602C23.3454 24.4558 23.5407 24.3262 24.0215 24.3262V22.3262C23.1663 22.3262 22.3538 22.5716 21.7688 23.2172L23.2508 24.5602ZM24.0215 24.3262C24.5023 24.3262 24.6976 24.4558 24.7922 24.5602L26.2742 23.2172C25.6891 22.5716 24.8766 22.3262 24.0215 22.3262V24.3262ZM24.8037 24.5726C24.9644 24.7441 25.0605 24.9604 25.0605 25.2949H27.0605C27.0605 24.5045 26.8051 23.7833 26.2627 23.2047L24.8037 24.5726ZM25.0605 25.2949C25.0605 25.5934 24.9729 25.7894 24.8146 25.953L26.2518 27.3439C26.7966 26.7809 27.0605 26.0746 27.0605 25.2949H25.0605ZM24.8029 25.9653C24.7105 26.0641 24.5115 26.1934 24.0215 26.1934V28.1934C24.8674 28.1934 25.6762 27.9593 26.2635 27.3316L24.8029 25.9653ZM24.0215 26.1934C23.5315 26.1934 23.3325 26.0641 23.24 25.9653L21.7795 27.3316C22.3667 27.9593 23.1755 28.1934 24.0215 28.1934V26.1934ZM23.2519 25.9782C23.1071 25.8178 23.0176 25.6134 23.0176 25.2949H21.0176C21.0176 26.0545 21.2562 26.7525 21.7677 27.3187L23.2519 25.9782Z" fill="#505B79"/>
</svg>
