<svg width="259" height="249" viewBox="0 0 259 249" fill="none" xmlns="http://www.w3.org/2000/svg">
<mask id="path-1-inside-1" fill="white">
<path d="M255.301 40.2174L146.159 22.0568C143.794 21.6732 141.558 23.2718 141.111 25.6378L133.315 72.7658L101.556 31.3929C100.086 29.4745 97.3386 29.1548 95.4216 30.6256L7.686 98.1522C5.76898 99.6229 5.44947 102.373 6.91919 104.291L60.6596 174.184C60.7874 174.375 60.9791 174.503 61.1069 174.695V233.781C61.1069 242.158 67.9443 249 76.3153 249H229.102C237.473 249 244.31 242.158 244.31 233.781V133.258L258.943 45.2691C259.327 42.9031 257.729 40.6011 255.301 40.2174ZM235.556 152.954H226.673C225.587 146.175 219.708 140.932 212.615 140.932C205.522 140.932 199.643 146.175 198.557 152.954H190.122C181.879 139.781 167.246 131.02 150.632 131.02C133.954 131.02 119.32 139.845 111.141 153.018C110.949 153.018 110.758 152.954 110.63 152.954H69.9252V120.149C69.9252 116.569 72.8007 113.691 76.3792 113.691H229.166C232.744 113.691 235.62 116.569 235.62 120.149L235.556 152.954ZM218.175 155.256C218.175 158.325 215.683 160.819 212.615 160.819C209.548 160.819 207.056 158.325 207.056 155.256C207.056 152.186 209.548 149.692 212.615 149.692C215.683 149.692 218.175 152.186 218.175 155.256ZM150.568 139.781C171.399 139.781 188.397 156.79 188.397 177.637C188.397 198.483 171.399 215.492 150.568 215.492C129.736 215.492 112.739 198.483 112.739 177.637C112.739 156.79 129.736 139.781 150.568 139.781ZM118.426 104.93H113.442V96.1699C113.442 93.7399 111.461 91.8216 109.096 91.8216H82.897C80.4688 91.8216 78.5518 93.8039 78.5518 96.1699V104.93H76.3153C67.9443 104.93 61.1069 111.773 61.1069 120.149V137.223L36.3135 105.058L94.6548 60.1685L123.346 97.5127L118.426 104.93ZM104.687 104.93H87.2423V100.582H104.687V104.93ZM225.779 104.93H195.873L181.432 86.8338C177.342 81.6542 171.208 78.7127 164.626 78.7127H155.488L160.664 47.6991L233.255 59.7848L225.779 104.93ZM147.373 87.4733H164.626C168.524 87.4733 172.166 89.1998 174.658 92.2692L184.755 104.93H128.905L136.701 93.1644C139.066 89.6474 143.028 87.4733 147.373 87.4733ZM16.4404 102.437L97.2747 40.2174L131.909 85.2991C131.014 86.2583 130.184 87.2814 129.417 88.3685L128.458 89.7753L98.9361 51.344C98.2332 50.4487 97.2108 49.8093 96.0606 49.6814C94.9104 49.5535 93.7601 49.8732 92.8655 50.5766L27.5591 100.774C25.6421 102.245 25.3226 104.994 26.7923 106.913L61.1708 151.611V160.563L16.4404 102.437ZM229.102 240.303H76.3153C72.7368 240.303 69.8613 237.426 69.8613 233.845V161.714H106.86C105.071 166.702 104.048 172.009 104.048 177.637C104.048 203.343 124.944 224.189 150.568 224.189C176.192 224.189 197.087 203.279 197.087 177.637C197.087 172.073 196.129 166.702 194.276 161.714H199.835C202.2 166.382 206.992 169.579 212.551 169.579C218.111 169.579 222.903 166.382 225.268 161.714H235.492V233.781C235.556 237.362 232.68 240.303 229.102 240.303ZM239.454 109.087C237.984 107.744 236.322 106.657 234.469 105.954L242.585 56.9072C242.776 55.7562 242.521 54.6052 241.818 53.646C241.115 52.6868 240.156 52.0474 239.006 51.8555L157.789 38.4269C155.424 38.0433 153.188 39.6419 152.74 42.0079L146.606 78.7767C144.625 78.8406 142.772 79.1603 140.919 79.7358L148.97 31.3929L249.614 48.1467L239.454 109.087Z"/>
</mask>
<path d="M255.301 40.2174L146.159 22.0568C143.794 21.6732 141.558 23.2718 141.111 25.6378L133.315 72.7658L101.556 31.3929C100.086 29.4745 97.3386 29.1548 95.4216 30.6256L7.686 98.1522C5.76898 99.6229 5.44947 102.373 6.91919 104.291L60.6596 174.184C60.7874 174.375 60.9791 174.503 61.1069 174.695V233.781C61.1069 242.158 67.9443 249 76.3153 249H229.102C237.473 249 244.31 242.158 244.31 233.781V133.258L258.943 45.2691C259.327 42.9031 257.729 40.6011 255.301 40.2174ZM235.556 152.954H226.673C225.587 146.175 219.708 140.932 212.615 140.932C205.522 140.932 199.643 146.175 198.557 152.954H190.122C181.879 139.781 167.246 131.02 150.632 131.02C133.954 131.02 119.32 139.845 111.141 153.018C110.949 153.018 110.758 152.954 110.63 152.954H69.9252V120.149C69.9252 116.569 72.8007 113.691 76.3792 113.691H229.166C232.744 113.691 235.62 116.569 235.62 120.149L235.556 152.954ZM218.175 155.256C218.175 158.325 215.683 160.819 212.615 160.819C209.548 160.819 207.056 158.325 207.056 155.256C207.056 152.186 209.548 149.692 212.615 149.692C215.683 149.692 218.175 152.186 218.175 155.256ZM150.568 139.781C171.399 139.781 188.397 156.79 188.397 177.637C188.397 198.483 171.399 215.492 150.568 215.492C129.736 215.492 112.739 198.483 112.739 177.637C112.739 156.79 129.736 139.781 150.568 139.781ZM118.426 104.93H113.442V96.1699C113.442 93.7399 111.461 91.8216 109.096 91.8216H82.897C80.4688 91.8216 78.5518 93.8039 78.5518 96.1699V104.93H76.3153C67.9443 104.93 61.1069 111.773 61.1069 120.149V137.223L36.3135 105.058L94.6548 60.1685L123.346 97.5127L118.426 104.93ZM104.687 104.93H87.2423V100.582H104.687V104.93ZM225.779 104.93H195.873L181.432 86.8338C177.342 81.6542 171.208 78.7127 164.626 78.7127H155.488L160.664 47.6991L233.255 59.7848L225.779 104.93ZM147.373 87.4733H164.626C168.524 87.4733 172.166 89.1998 174.658 92.2692L184.755 104.93H128.905L136.701 93.1644C139.066 89.6474 143.028 87.4733 147.373 87.4733ZM16.4404 102.437L97.2747 40.2174L131.909 85.2991C131.014 86.2583 130.184 87.2814 129.417 88.3685L128.458 89.7753L98.9361 51.344C98.2332 50.4487 97.2108 49.8093 96.0606 49.6814C94.9104 49.5535 93.7601 49.8732 92.8655 50.5766L27.5591 100.774C25.6421 102.245 25.3226 104.994 26.7923 106.913L61.1708 151.611V160.563L16.4404 102.437ZM229.102 240.303H76.3153C72.7368 240.303 69.8613 237.426 69.8613 233.845V161.714H106.86C105.071 166.702 104.048 172.009 104.048 177.637C104.048 203.343 124.944 224.189 150.568 224.189C176.192 224.189 197.087 203.279 197.087 177.637C197.087 172.073 196.129 166.702 194.276 161.714H199.835C202.2 166.382 206.992 169.579 212.551 169.579C218.111 169.579 222.903 166.382 225.268 161.714H235.492V233.781C235.556 237.362 232.68 240.303 229.102 240.303ZM239.454 109.087C237.984 107.744 236.322 106.657 234.469 105.954L242.585 56.9072C242.776 55.7562 242.521 54.6052 241.818 53.646C241.115 52.6868 240.156 52.0474 239.006 51.8555L157.789 38.4269C155.424 38.0433 153.188 39.6419 152.74 42.0079L146.606 78.7767C144.625 78.8406 142.772 79.1603 140.919 79.7358L148.97 31.3929L249.614 48.1467L239.454 109.087Z" fill="url(#paint0_linear)" stroke="#9FA7AA" stroke-width="2" mask="url(#path-1-inside-1)"/>
<path d="M201.501 96.5126L201.501 96.5126V96.5C201.501 94.3036 203.208 92.5 205.324 92.5H222.678C224.739 92.5 226.5 94.2471 226.5 96.5C226.5 98.6964 224.793 100.5 222.678 100.5H205.324C203.192 100.5 201.445 98.7486 201.501 96.5126Z" fill="url(#paint1_linear)" stroke="#9FA7AA"/>
<path d="M22.5014 17.6264L22.5016 17.6264V17.6129V4.3871C22.5016 2.28323 24.2555 0.5 26.5008 0.5C28.6847 0.5 30.5 2.28796 30.5 4.3871V17.6129C30.5 19.7168 28.746 21.5 26.5008 21.5C24.2377 21.5 22.4436 19.7673 22.5014 17.6264Z" fill="url(#paint2_linear)" stroke="#9FA7AA"/>
<path d="M22.5 35.3871C22.5 33.2833 24.2542 31.5 26.5 31.5C28.6893 31.5 30.5 33.2282 30.5 35.3871V48.6129C30.5 50.7167 28.7458 52.5 26.5 52.5C24.3107 52.5 22.5 50.7718 22.5 48.6129V35.3871Z" fill="url(#paint3_linear)" stroke="#9FA7AA"/>
<path d="M4.37324 22.5014L4.37324 22.5016H4.3871H17.6129C19.7168 22.5016 21.5 24.2555 21.5 26.5008C21.5 28.6896 19.7718 30.5 17.6129 30.5H4.3871C2.28323 30.5 0.5 28.746 0.5 26.5008C0.5 24.2424 2.29258 22.4437 4.37324 22.5014Z" fill="url(#paint4_linear)" stroke="#9FA7AA"/>
<path d="M47.8123 30.5H35.1877C33.1615 30.5 31.5 28.7118 31.5 26.5C31.5 24.2882 33.1615 22.5 35.1877 22.5H47.8123C49.7861 22.5 51.5 24.2319 51.5 26.5C51.5 28.7118 49.8385 30.5 47.8123 30.5Z" fill="url(#paint5_linear)" stroke="#9FA7AA"/>
<path d="M9.5 199C9.5 190.992 15.9916 184.5 24 184.5C32.0084 184.5 38.5 190.992 38.5 199C38.5 207.008 32.0084 213.5 24 213.5C15.9916 213.5 9.5 207.008 9.5 199ZM17.0983 199.063C17.0983 202.854 20.2092 205.964 24 205.964C27.8567 205.964 30.9017 202.85 30.9017 199.063C30.9017 195.272 27.7908 192.161 24 192.161C20.2092 192.161 17.0983 195.272 17.0983 199.063Z" fill="url(#paint6_linear)" stroke="#9FA7AA"/>
<path d="M95.5 13.5C95.5 15.7091 93.7091 17.5 91.5 17.5C89.2909 17.5 87.5 15.7091 87.5 13.5C87.5 11.2909 89.2909 9.5 91.5 9.5C93.7091 9.5 95.5 11.2909 95.5 13.5Z" fill="url(#paint7_linear)" stroke="#9FA7AA"/>
<path d="M43.5 240.5C43.5 242.709 41.7091 244.5 39.5 244.5C37.2909 244.5 35.5 242.709 35.5 240.5C35.5 238.291 37.2909 236.5 39.5 236.5C41.7091 236.5 43.5 238.291 43.5 240.5Z" fill="url(#paint8_linear)" stroke="#9FA7AA"/>
<path d="M244.5 9C244.5 10.933 242.933 12.5 241 12.5C239.067 12.5 237.5 10.933 237.5 9C237.5 7.067 239.067 5.5 241 5.5C242.933 5.5 244.5 7.067 244.5 9Z" fill="url(#paint9_linear)" stroke="#9FA7AA"/>
<path d="M180.5 178C180.5 194.297 167.234 207.5 151 207.5C134.766 207.5 121.5 194.297 121.5 178C121.5 161.703 134.766 148.5 151 148.5C167.298 148.5 180.5 161.702 180.5 178ZM172.699 178C172.699 166.032 162.968 156.301 151 156.301C139.031 156.301 129.301 166.097 129.301 178C129.301 189.968 139.032 199.699 151 199.699C162.968 199.699 172.699 189.968 172.699 178Z" fill="url(#paint10_linear)" stroke="#9FA7AA"/>
<defs>
<linearGradient id="paint0_linear" x1="132.5" y1="22" x2="132.5" y2="249" gradientUnits="userSpaceOnUse">
<stop stop-color="#515A79"/>
<stop offset="1" stop-color="#696E7C"/>
</linearGradient>
<linearGradient id="paint1_linear" x1="214" y1="92" x2="214" y2="101" gradientUnits="userSpaceOnUse">
<stop stop-color="#515A79"/>
<stop offset="1" stop-color="#696E7C"/>
</linearGradient>
<linearGradient id="paint2_linear" x1="26.5" y1="0" x2="26.5" y2="22" gradientUnits="userSpaceOnUse">
<stop stop-color="#515A79"/>
<stop offset="1" stop-color="#696E7C"/>
</linearGradient>
<linearGradient id="paint3_linear" x1="26.5" y1="31" x2="26.5" y2="53" gradientUnits="userSpaceOnUse">
<stop stop-color="#515A79"/>
<stop offset="1" stop-color="#696E7C"/>
</linearGradient>
<linearGradient id="paint4_linear" x1="11" y1="22" x2="11" y2="31" gradientUnits="userSpaceOnUse">
<stop stop-color="#515A79"/>
<stop offset="1" stop-color="#696E7C"/>
</linearGradient>
<linearGradient id="paint5_linear" x1="41.5" y1="22" x2="41.5" y2="31" gradientUnits="userSpaceOnUse">
<stop stop-color="#515A79"/>
<stop offset="1" stop-color="#696E7C"/>
</linearGradient>
<linearGradient id="paint6_linear" x1="24" y1="184" x2="24" y2="214" gradientUnits="userSpaceOnUse">
<stop stop-color="#515A79"/>
<stop offset="1" stop-color="#696E7C"/>
</linearGradient>
<linearGradient id="paint7_linear" x1="91.5" y1="9" x2="91.5" y2="18" gradientUnits="userSpaceOnUse">
<stop stop-color="#515A79"/>
<stop offset="1" stop-color="#696E7C"/>
</linearGradient>
<linearGradient id="paint8_linear" x1="39.5" y1="236" x2="39.5" y2="245" gradientUnits="userSpaceOnUse">
<stop stop-color="#515A79"/>
<stop offset="1" stop-color="#696E7C"/>
</linearGradient>
<linearGradient id="paint9_linear" x1="241" y1="5" x2="241" y2="13" gradientUnits="userSpaceOnUse">
<stop stop-color="#515A79"/>
<stop offset="1" stop-color="#696E7C"/>
</linearGradient>
<linearGradient id="paint10_linear" x1="151" y1="148" x2="151" y2="208" gradientUnits="userSpaceOnUse">
<stop stop-color="#515A79"/>
<stop offset="1" stop-color="#696E7C"/>
</linearGradient>
</defs>
</svg>
